{
  "ids": {
    "User": 1,
    "accessToken": 1,
    "ACL": 1,
    "RoleMapping": 5,
    "Role": 5,
    "userCredential": 1,
    "userIdentity": 1,
    "AppModel": 1,
    "Post": 1,
    "Setting": 8,
    "Product": 5,
    "Category": 3,
    "Booking": 1,
    "AuthProvider": 1,
    "user": 5,
    "Meta": 1,
    "Driver": 1,
    "Restaurant": 1
  },
  "models": {
    "User": {},
    "accessToken": {},
    "ACL": {},
    "RoleMapping": {
      "1": "{\"principalType\":\"USER\",\"principalId\":\"1\",\"roleId\":1,\"id\":1}",
      "2": "{\"principalType\":\"USER\",\"principalId\":\"2\",\"roleId\":2,\"id\":2}",
      "3": "{\"principalType\":\"USER\",\"principalId\":\"3\",\"roleId\":3,\"id\":3}",
      "4": "{\"principalType\":\"USER\",\"principalId\":\"4\",\"roleId\":4,\"id\":4}"
    },
    "Role": {
      "1": "{\"name\":\"admin\",\"created\":\"2017-04-06T07:49:01.831Z\",\"modified\":\"2017-04-06T07:49:01.830Z\",\"id\":1}",
      "2": "{\"name\":\"users\",\"created\":\"2017-04-06T07:49:01.831Z\",\"modified\":\"2017-04-06T07:49:01.831Z\",\"id\":2}",
      "3": "{\"name\":\"consumer\",\"created\":\"2017-04-06T07:49:01.831Z\",\"modified\":\"2017-04-06T07:49:01.831Z\",\"id\":3}",
      "4": "{\"name\":\"shipper\",\"created\":\"2017-04-06T07:49:01.831Z\",\"modified\":\"2017-04-06T07:49:01.831Z\",\"id\":4}"
    },
    "userCredential": {},
    "userIdentity": {},
    "AppModel": {},
    "Post": {},
    "Setting": {
      "1": "{\"key\":\"appName\",\"value\":\"Xindy\",\"type\":\"string\",\"id\":1}",
      "2": "{\"key\":\"appTheme\",\"value\":\"skin-blue\",\"type\":\"select\",\"options\":[\"skin-blue\",\"skin-black\"],\"id\":2}",
      "3": "{\"key\":\"appLayout\",\"value\":\"fixed\",\"type\":\"select\",\"options\":[\"skin-blue\",\"not-fixed\"],\"id\":3}",
      "4": "{\"key\":\"formLayout\",\"value\":\"horizontal\",\"type\":\"string\",\"id\":4}",
      "5": "{\"key\":\"formLabelSize\",\"value\":\"3\",\"type\":\"int\",\"id\":5}",
      "6": "{\"key\":\"formInputSize\",\"value\":\"9\",\"type\":\"int\",\"id\":6}",
      "7": "{\"key\":\"com.module.users.enable_registration\",\"value\":\"true\",\"type\":\"boolean\",\"id\":7}"
    },
    "Product": {
      "1": "{\"name\":\"Cơm hến\",\"categoryId\":1,\"created\":\"Thu Apr 06 2017\",\"introduce\":\"Được nấu từ gạo nết thơm ngon, hến tươi được chế biến kỹ lưỡng với công thức gia truyền\",\"type\":\"Món mặn\",\"unit\":\"Suất\",\"timeProcess\":\"30 phút\",\"promotion\":\"Tặng cơm thêm miễn phí\",\"price\":50000,\"categoryName\":\"Hương Việt\",\"id\":1}",
      "2": "{\"name\":\"Chè cung đình\",\"categoryId\":1,\"created\":\"Thu Apr 06 2017\",\"introduce\":\"Gà ta\",\"type\":\"Món ngọt\",\"unit\":\"Ly\",\"timeProcess\":\"30 phút\",\"promotion\":\"Mua 2 tặng 1\",\"price\":15000,\"categoryName\":\"Hương Việt\",\"id\":2}",
      "3": "{\"name\":\"Cơm Trung Hoa\",\"categoryId\":2,\"created\":\"Thu Apr 06 2017\",\"introduce\":\"Được nấu từ gạo nết thơm ngon, hến tươi được chế biến kỹ lưỡng với công thức gia truyền\",\"type\":\"Món mặn\",\"unit\":\"Suất\",\"timeProcess\":\"30 phút\",\"promotion\":\"Nước uống\",\"price\":250000,\"categoryName\":\"Phì Lũ\",\"id\":3}",
      "4": "{\"name\":\"Bún bò\",\"categoryId\":2,\"created\":\"Thu Apr 06 2017\",\"introduce\":\"Nước lều với công thức gia truyền\",\"type\":\"Món mặn\",\"unit\":\"Suất\",\"timeProcess\":\"30 phút\",\"promotion\":\"Nước uống\",\"price\":70000,\"categoryName\":\"Phì Lũ\",\"id\":4}"
    },
    "Category": {
      "1": "{\"name\":\"Hương Việt\",\"ownerId\":3,\"created\":\"Thu Apr 06 2017\",\"zone\":\"Huế\",\"address\":\"31 Lê Duẫn, Huế\",\"description\":\"Nhà hàng, quán nhậu\",\"close\":\"21:00\",\"open\":\"8:00\",\"common\":1,\"imageSrc\":\"http://muaban.ru/FileUpload/Images/301211_085737logo_huong_viet_doi_mau_copy.jpg\",\"id\":1}",
      "2": "{\"name\":\"Phì Lũ\",\"ownerId\":3,\"created\":\"Thu Apr 06 2017\",\"zone\":\"Đà Nẵng\",\"address\":\"31 Điện Biên Phủ, Đà Nẵng\",\"description\":\"Nhà hàng\",\"close\":\"21:00\",\"open\":\"8:00\",\"common\":2,\"imageSrc\":\"http://philu.com.vn/images/news/philu_new.jpg\",\"id\":2}"
    },
    "Booking": {},
    "AuthProvider": {},
    "user": {
      "1": "{\"email\":\"admin@admin.com\",\"password\":\"$2a$10$y87NfqSUcVPvutcVhvDhKepa1A.t0i3vnXdY6zuRV3oAhQDKUWzfi\",\"fullName\":\"Admin\",\"role\":\"admin\",\"username\":\"admin@admin.com\",\"status\":\"created\",\"created\":\"2017-04-06T07:49:01.993Z\",\"id\":1}",
      "2": "{\"email\":\"user@user.com\",\"password\":\"$2a$10$FJ2WdRzwuLLGlADyMPSZwun6zOmNRPBagHkCRkR.IYZTT4sgOBLp6\",\"fullName\":\"Guest\",\"role\":\"user\",\"username\":\"user@user.com\",\"status\":\"created\",\"created\":\"2017-04-06T07:49:02.094Z\",\"id\":2}",
      "3": "{\"email\":\"consumer@user.com\",\"password\":\"$2a$10$X9mUi64TTeYzLmMKuGJBlem68E6ATizVuXIuobcJoFt8cbZNswvkS\",\"fullName\":\"Consumer\",\"role\":\"consumer\",\"username\":\"consumer@user.com\",\"status\":\"created\",\"created\":\"2017-04-06T07:49:02.192Z\",\"id\":3}",
      "4": "{\"email\":\"shipper@user.com\",\"password\":\"$2a$10$ibHdtQh6Sfz/1n1gcE6NfO6XwY7SeSHZ4w/LOztIHl5sppmgvfmf6\",\"fullName\":\"Shipper\",\"role\":\"shipper\",\"username\":\"shipper@user.com\",\"status\":\"created\",\"created\":\"2017-04-06T07:49:02.293Z\",\"id\":4}"
    },
    "Meta": {},
    "Driver": {},
    "Restaurant": {}
  }
}